@startuml
actor Utilisateur as user
participant Navigateur as browser
participant MyWebServer as webserver #99FF99
participant MyWebsocketServer as wsserver #99FF99
participant socketClient as wsclient #99FF99
participant MySerialport as serial #99FF99
participant Uart as uart
user -> browser: url app.js
browser-> webserver: https GET
webserver-> browser: page web
activate browser
browser-> wsserver: connexion
wsserver -> browser : 'connect'
create wsclient
wsserver -> wsclient
browser -> wsclient : join('Client connecté')
user -> browser : action page web
alt Bouton poussoir enfoncé
browser -> wsclient : bp(1)
wsclient -> serial : write('$B1\\r')
serial -> uart : '$B1\\r'
opt réponse ?
   uart-> serial : data
   serial -> serial : readSerialData()
   alt data == '$B1\\r'
      serial -> wsserver : emit('bpFeedback(1))
      wsserver-> browser : bpFeedback(1)
      browser -> browser : Alllumer DEL
   end
end
else bouton poussoir relâché
browser -> wsclient : bp(0)
wsclient -> serial : write('$B0\\r')
serial -> uart : '$B0\\r'
opt réponse ?
   uart-> serial : data
   serial -> serial : readSerialData()
   alt data == '$B0\\r'
      serial -> wsserver : emit(bpFeedback(0))
      wsserver-> browser : bpFeedback(0)
      browser -> browser : Eteindre DEL
   end
end
else curseur déplacé
browser -> wsclient : curseur([0...255])
wsclient -> serial : write('$S[000...255]\\r')
serial -> uart : '$S[000...255]\\r'
opt réponse ?
   uart-> serial : data
   serial -> serial : readSerialData()
   alt data == '$S[000...255]\\r'
      serial -> wsserver : emit(curseurFeedback([0...255])
      wsserver-> browser : curseurFeedback([0...255])
      browser -> browser : afficher valeur curseur
   end
end
end

@enduml